/Users/eduardk/Documents/an3sem2/vvss/keir2129/Docs/Lab04/ProiectEvaluatorExamen/src/main/java/evaluator/repository/IntrebariRepository.java
/Users/eduardk/Documents/an3sem2/vvss/keir2129/Docs/Lab04/ProiectEvaluatorExamen/src/main/java/evaluator/exception/InputValidationFailedException.java
/Users/eduardk/Documents/an3sem2/vvss/keir2129/Docs/Lab04/ProiectEvaluatorExamen/src/main/java/evaluator/main/StartApp.java
/Users/eduardk/Documents/an3sem2/vvss/keir2129/Docs/Lab04/ProiectEvaluatorExamen/src/main/java/evaluator/exception/NotAbleToCreateStatisticsException.java
/Users/eduardk/Documents/an3sem2/vvss/keir2129/Docs/Lab04/ProiectEvaluatorExamen/src/main/java/evaluator/util/InputValidation.java
/Users/eduardk/Documents/an3sem2/vvss/keir2129/Docs/Lab04/ProiectEvaluatorExamen/src/main/java/evaluator/controller/AppController.java
/Users/eduardk/Documents/an3sem2/vvss/keir2129/Docs/Lab04/ProiectEvaluatorExamen/src/main/java/evaluator/model/Statistica.java
/Users/eduardk/Documents/an3sem2/vvss/keir2129/Docs/Lab04/ProiectEvaluatorExamen/src/main/java/evaluator/exception/DuplicateIntrebareException.java
/Users/eduardk/Documents/an3sem2/vvss/keir2129/Docs/Lab04/ProiectEvaluatorExamen/src/main/java/evaluator/exception/NotAbleToCreateTestException.java
/Users/eduardk/Documents/an3sem2/vvss/keir2129/Docs/Lab04/ProiectEvaluatorExamen/src/main/java/evaluator/model/Test.java
/Users/eduardk/Documents/an3sem2/vvss/keir2129/Docs/Lab04/ProiectEvaluatorExamen/src/main/java/evaluator/model/Intrebare.java
